<svg xmlns="http://www.w3.org/2000/svg" width="28.8" height="16.31" viewBox="0 0 28.8 16.31">
  <defs>
    <style>
      .cls-1 {
        fill: #382766;
      }

      .cls-2 {
        fill: #fff;
      }
    </style>
  </defs>
  <title>Kit</title>
  <g id="Layer_2" data-name="Layer 2">
    <g id="Filled">
      <g id="Kit">
        <g>
          <path class="cls-1" d="M4.78,4.38l2.36,0,.55,11a.87.87,0,0,1-.87.88l-1.28,0a.86.86,0,0,1-.87-.87Z"/>
          <path class="cls-1" d="M10.89.73V2.49a.65.65,0,0,1-.64.65l-.41,0c-.27,0-.58-.16-.61-.36S9,2.28,8.42,2.3c-.79,0-1.31.46-1.3.87,0,.14,0,.68,0,.68H4.75V3.47s0-.09,0-.3c0-.75-.8-.78-.8-.78A5.5,5.5,0,0,0,.39,3.89L0,3.54C2.2-.18,4.6,0,5.41,0H7.12c.42,0,.81.81,1.46.84A1,1,0,0,0,9.27.57a.57.57,0,0,1,.6-.5h.37A.66.66,0,0,1,10.89.73Z"/>
        </g>
        <g>
          <path class="cls-1" d="M16.59,3.71c1.57,0,2.07.16,2.07.82h1c0-1.31-1.11-2.24-3.1-2.24s-3.11.93-3.11,2.24h1C14.51,3.87,15,3.71,16.59,3.71Z"/>
          <path class="cls-1" d="M27.86,4.85H5.22a.46.46,0,0,0-.47.44h0V9.76H9.67V9.41a.37.37,0,0,1,.32-.3h.78a.29.29,0,0,1,.22.3v.35H22.11V9.41a.32.32,0,0,1,.25-.3h.77a.36.36,0,0,1,.29.3v.35h4.91V5.3a.46.46,0,0,0-.46-.45Z"/>
          <path class="cls-1" d="M23.42,11.43a.36.36,0,0,1-.29.3h-.77a.33.33,0,0,1-.25-.3V10.09H11v1.34a.28.28,0,0,1-.21.3H10a.37.37,0,0,1-.32-.3V10.09H4.75v5.8a.43.43,0,0,0,.44.42H27.86a.44.44,0,0,0,.47-.4V10.09H23.42Z"/>
        </g>
        <g>
          <path class="cls-1" d="M24.42,4.13A.14.14,0,0,0,24.28,4V3.48a.14.14,0,0,0,0-.28H21.55l-.16-.15a.14.14,0,0,0-.14,0l-1.19.4a.15.15,0,0,0-.1.14V4a.21.21,0,0,0,0,.1l.06,0,1.19.39a.14.14,0,0,0,.15,0l.16-.16h2.72A.15.15,0,0,0,24.42,4.13Z"/>
          <path class="cls-1" d="M28.8,3.84V3.61A.85.85,0,0,0,28,2.79H25.47a.14.14,0,0,0-.1,0,.42.42,0,0,1-.59,0,.13.13,0,0,0-.1,0h-.4a.14.14,0,0,0-.14.14V4.53a.12.12,0,0,0,.05.1.11.11,0,0,0,.09,0h.4a.12.12,0,0,0,.1,0,.44.44,0,0,1,.6,0,.13.13,0,0,0,.1,0H28a.82.82,0,0,0,.82-.82Zm-3.22-.26a.12.12,0,0,1-.1-.05.12.12,0,0,1-.05-.09.15.15,0,0,1,.14-.15H28a.14.14,0,0,1,0,.28ZM28,4.17H25.58A.14.14,0,0,1,25.44,4a.14.14,0,0,1,.14-.14H28a.15.15,0,0,1,.15.14A.15.15,0,0,1,28,4.17Z"/>
        </g>
        <g>
          <g>
            <path class="cls-1" d="M18.2,13.83a1.72,1.72,0,0,1,1.74-1.7,2,2,0,0,1,1,.25,1.33,1.33,0,0,1,.62.79v0a.13.13,0,0,1-.13.13l-1.3,0-.51.52.5.51,1.3,0h0a.13.13,0,0,1,.08.16,1.43,1.43,0,0,1-.64.79,1.94,1.94,0,0,1-1,.26,1.73,1.73,0,0,1-1.7-1.74Zm1.88.77a.15.15,0,0,1-.09,0l-.62-.65a.13.13,0,0,1,0-.18l.64-.64a.12.12,0,0,1,.09,0h1.17a1,1,0,0,0-.44-.47,1.83,1.83,0,0,0-.89-.22,1.48,1.48,0,0,0-1.49,1.45v0a1.47,1.47,0,0,0,1.45,1.47,1.39,1.39,0,0,0,1.35-.71Z"/>
            <path class="cls-2" d="M20,15.62h-.07a1.77,1.77,0,0,1-1.73-1.78h0a1.76,1.76,0,0,1,1.76-1.74H20a2.18,2.18,0,0,1,1,.25,1.34,1.34,0,0,1,.63.81.13.13,0,0,1,0,.06.17.17,0,0,1-.17.16h0l-1.29,0-.47.48.46.47,1.29,0h0a.17.17,0,0,1,.1.21,1.51,1.51,0,0,1-.65.82A2,2,0,0,1,20,15.62Zm-1.73-1.79h0a1.69,1.69,0,0,0,1.67,1.7H20a1.91,1.91,0,0,0,.94-.25,1.35,1.35,0,0,0,.62-.77.09.09,0,0,0-.06-.12h0l-1.32,0h0l-.53-.54,0,0,.52-.53h0l1.3,0h0a.09.09,0,0,0,.09-.09v0a1.27,1.27,0,0,0-.6-.76,2.05,2.05,0,0,0-1-.24h0A1.69,1.69,0,0,0,18.23,13.83ZM20,15.37H19.9a1.51,1.51,0,0,1-1.49-1.51v0a1.51,1.51,0,0,1,1.51-1.48H20a1.89,1.89,0,0,1,.87.21,1.12,1.12,0,0,1,.45.49l0,.06-1.23,0a.09.09,0,0,0-.07,0l-.64.64a.11.11,0,0,0,0,.13l.63.64a.07.07,0,0,0,.06,0l1.23,0,0,.05A1.43,1.43,0,0,1,20,15.37Zm-.11-2.95a1.43,1.43,0,0,0-1.43,1.41v0a1.43,1.43,0,0,0,1.41,1.43,1.36,1.36,0,0,0,1.28-.63h-1.1a.17.17,0,0,1-.12-.05l-.62-.65a.16.16,0,0,1,0-.23l.64-.64A.13.13,0,0,1,20.1,13h1.11a1,1,0,0,0-.4-.4,1.89,1.89,0,0,0-.87-.21Z"/>
          </g>
          <g>
            <path class="cls-1" d="M13.48,14.42a.13.13,0,0,1,.14-.13l4.79,0h0a.13.13,0,0,1,.13.13.13.13,0,0,1-.13.13l-4.8,0a.13.13,0,0,1-.13-.13Z"/>
            <path class="cls-2" d="M18.41,14.62l-4.8,0a.16.16,0,0,1-.12-.05.13.13,0,0,1,0-.12.17.17,0,0,1,.17-.17l4.79,0a.17.17,0,0,1,.17.17A.18.18,0,0,1,18.41,14.62Zm-4.79-.29a.09.09,0,0,0-.1.09.09.09,0,0,0,0,.07l.06,0,4.8,0a.11.11,0,0,0,.1-.09.1.1,0,0,0-.1-.09Z"/>
          </g>
          <g>
            <path class="cls-1" d="M13.62,13.08l4.8,0h0a.13.13,0,1,1,0,.26l-4.8,0a.13.13,0,0,1-.13-.14A.13.13,0,0,1,13.62,13.08Z"/>
            <path class="cls-2" d="M18.42,13.41h0l-4.8,0a.15.15,0,0,1-.12-.05.17.17,0,0,1-.05-.12.18.18,0,0,1,.17-.17h0l4.8,0a.18.18,0,0,1,.17.17.17.17,0,0,1-.05.12A.18.18,0,0,1,18.42,13.41Zm-4.8-.29a.09.09,0,0,0-.09.09.09.09,0,0,0,0,.07.07.07,0,0,0,.06,0l4.8,0h0a.09.09,0,0,0,0-.18l-4.8,0Z"/>
          </g>
          <g>
            <path class="cls-1" d="M12.72,12.6h0a1.22,1.22,0,0,1,1.2,1.22,1.21,1.21,0,0,1-2.42,0A1.22,1.22,0,0,1,12.72,12.6Zm.94,1.22a1,1,0,0,0-.94-1h0a.95.95,0,1,0,.94,1Z"/>
            <path class="cls-2" d="M12.71,15.06h0a1.25,1.25,0,0,1,0-2.49h0a1.23,1.23,0,0,1,.88.37,1.24,1.24,0,0,1-.89,2.12Zm0-2.42a1.17,1.17,0,0,0,0,2.34h0a1.17,1.17,0,0,0,.83-2,1.2,1.2,0,0,0-.82-.35Zm0,2.16h0a1,1,0,0,1,0-2h0a1,1,0,0,1,1,1h0a1,1,0,0,1-.3.69A.94.94,0,0,1,12.71,14.8Zm0-1.89a.91.91,0,1,0,0,1.81h0a.9.9,0,0,0,.64-.26.91.91,0,0,0-.64-1.55Z"/>
          </g>
          <g>
            <path class="cls-1" d="M12.71,13.23a.6.6,0,0,1,.58.59.57.57,0,0,1-.58.57.58.58,0,0,1,0-1.16Zm0,.27a.32.32,0,0,0-.32.31.32.32,0,0,0,.32.32.32.32,0,0,0,.32-.31A.32.32,0,0,0,12.71,13.5Z"/>
            <path class="cls-2" d="M12.71,14.43h0a.61.61,0,0,1-.62-.62.62.62,0,0,1,.62-.62h0a.64.64,0,0,1,.62.63A.61.61,0,0,1,12.71,14.43Zm0-1.16a.54.54,0,0,0-.54.54.53.53,0,0,0,.16.39.57.57,0,0,0,.38.16h0a.55.55,0,0,0,0-1.09Zm0,.9h0a.36.36,0,0,1-.25-.1.36.36,0,0,1-.11-.26.36.36,0,0,1,.36-.35h0a.36.36,0,1,1,0,.71Zm0-.64a.29.29,0,0,0-.28.28.27.27,0,0,0,.28.28h0a.28.28,0,0,0,.28-.27.29.29,0,0,0-.28-.29Z"/>
          </g>
          <g>
            <path class="cls-1" d="M13.82,13.81a.13.13,0,0,1,.13-.13l3.47,0a.13.13,0,1,1,0,.26l-3.47,0a.13.13,0,0,1-.13-.13Z"/>
            <path class="cls-2" d="M17.42,14,14,14a.17.17,0,0,1-.17-.17.17.17,0,0,1,.05-.12.18.18,0,0,1,.12,0l3.47,0a.17.17,0,1,1,0,.34ZM14,13.72l-.07,0a.19.19,0,0,0,0,.07.09.09,0,0,0,.09.09l3.47,0a.09.09,0,0,0,0-.18l-3.47,0Z"/>
          </g>
        </g>
      </g>
    </g>
  </g>
</svg>
